module bitbucket.org/Thenor_Baker/bookstore_users-api

go 1.15

require (
	github.com/gin-gonic/gin v1.6.3
	github.com/go-sql-driver/mysql v1.5.0
	go.uber.org/multierr v1.6.0 // indirect
	go.uber.org/zap v1.16.0
)
